R10342008_新聞所碩一_何家慈-Midterm-Assignment
…
## `summarise()` has grouped output by 'year'. You can override using the `.groups` argument.

cleaned_us

## # A tibble: 54 × 4
##     year `energy source` `electricity production` percentage
##    <int> <chr>                              <dbl>      <dbl>
##  1  2013 coal                             157097.       43.4
##  2  2013 gas                               91061.       25.1
##  3  2013 nuclear                           73163.       20.2
##  4  2013 solar                              1375.        0.4
##  5  2013 water                             21634.        6  
##  6  2013 wind                              17911.        4.9
##  7  2014 coal                             129755.       39.3
##  8  2014 gas                               94770.       28.7
##  9  2014 nuclear                           66523.       20.1
## 10  2014 solar                              2454.        0.7
## # … with 44 more rows
…
